\relax 
\bibstyle{ieeetr}
\citation{arora2015dcu}
\@writefile{toc}{\contentsline {section}{\numberline {1}Introduction}{1}}
\citation{agirrea2015semeval}
\citation{arora2015dcu}
\citation{rehurek_lrec}
\citation{scikit-learn}
\citation{BirdKleinLoper09}
\@writefile{toc}{\contentsline {section}{\numberline {2}Data and Resources}{2}}
\@writefile{toc}{\contentsline {section}{\numberline {3}Methodology}{2}}
\@writefile{toc}{\contentsline {subsection}{\numberline {3.1}Preprocessing}{2}}
\citation{arora2015dcu}
\citation{mikolov2013efficient}
\@writefile{toc}{\contentsline {subsection}{\numberline {3.2}Feature Design}{3}}
\@writefile{toc}{\contentsline {subsubsection}{\numberline {3.2.1}Cosine similarity}{3}}
\@writefile{toc}{\contentsline {subsubsection}{\numberline {3.2.2}Sentence Word2vec}{3}}
\@writefile{toc}{\contentsline {subsubsection}{\numberline {3.2.3}POS Tag}{4}}
\@writefile{toc}{\contentsline {subsection}{\numberline {3.3}Baseline}{4}}
\@writefile{toc}{\contentsline {subsection}{\numberline {3.4}Domain Adaptation}{4}}
\@writefile{toc}{\contentsline {subsubsection}{\numberline {3.4.1}Data selection}{4}}
\@writefile{lot}{\contentsline {table}{\numberline {1}{\ignorespaces My caption}}{5}}
\newlabel{my-label}{{1}{5}}
\@writefile{toc}{\contentsline {subsubsection}{\numberline {3.4.2}Self-training}{5}}
\@writefile{toc}{\contentsline {subsubsection}{\numberline {3.4.3}Tri-training}{5}}
\@writefile{toc}{\contentsline {section}{\numberline {4}Results}{6}}
\@writefile{lof}{\contentsline {figure}{\numberline {1}{\ignorespaces Self Training}}{6}}
\newlabel{fig:selftraining}{{1}{6}}
\@writefile{lof}{\contentsline {figure}{\numberline {2}{\ignorespaces Tri Training}}{7}}
\newlabel{fig:tritraining}{{2}{7}}
\@writefile{toc}{\contentsline {section}{\numberline {5}Discussion}{7}}
\bibstyle{acm}
\bibdata{biblo}
\bibcite{arora2015dcu}{1}
\bibcite{agirrea2015semeval}{2}
\bibcite{rehurek_lrec}{3}
\bibcite{scikit-learn}{4}
\@writefile{toc}{\contentsline {section}{\numberline {6}Further Research}{8}}
\@writefile{toc}{\contentsline {section}{\numberline {7}Conclusion}{8}}
\bibcite{BirdKleinLoper09}{5}
\bibcite{mikolov2013efficient}{6}
